<svg width="43" height="46" viewBox="0 0 43 46" xmlns="http://www.w3.org/2000/svg">
<path d="M40.3992 10.7286H35.9664C35.5032 10.7286 35.1276 11.1304 35.1276 11.626V12.5234H34.4567C33.3435 12.5234 32.361 13.3256 32.067 14.4743L31.1416 18.0912C31.1232 18.0898 31.1048 18.0881 31.0861 18.0881H29.7457C29.3444 15.5065 27.2432 13.5316 24.7177 13.5316C23.9399 13.5316 23.1781 13.7226 22.4885 14.0816C21.9433 12.3012 20.7869 10.8297 19.3001 9.92981C19.907 9.64449 20.4696 9.23879 20.9558 8.71832C22.2779 7.30398 22.8212 5.29302 22.4091 3.33821C22.3379 3.00024 22.0912 2.73632 21.7753 2.66016C19.948 2.21937 18.0682 2.80054 16.7461 4.21454C16.4593 4.52127 16.2097 4.85573 15.9981 5.21159C15.7868 4.85573 15.5368 4.52127 15.2504 4.21454C13.9283 2.80054 12.0482 2.21901 10.2212 2.66016C9.90526 2.73632 9.65856 3.00024 9.58737 3.33821C9.17532 5.29302 9.71827 7.30433 11.0404 8.71832C11.4964 9.20615 12.0187 9.5943 12.5823 9.87612C10.9807 10.8111 9.75075 12.4037 9.23207 14.3357C8.84627 14.2227 8.44603 14.1648 8.0435 14.1648C5.84513 14.1648 4.01092 15.8574 3.61626 18.0881H2.57531C1.62031 18.0881 0.762746 18.6152 0.281475 19.4979C-0.199469 20.3805 -0.20603 21.4383 0.264087 22.3276L5.61713 32.4501C5.99899 33.1721 6.60132 33.7139 7.30338 34.0045L6.84114 34.5576C6.15187 34.1095 5.34319 33.8515 4.4794 33.8515C1.96379 33.8515 -0.0826776 36.0407 -0.0826776 38.7319C-0.0826776 41.4226 1.96379 43.6122 4.4794 43.6122C6.995 43.6122 9.04147 41.4226 9.04147 38.7319C9.04147 37.612 8.68617 36.5798 8.09106 35.7554L9.35379 34.2439H15.2412L19.2538 42.6081C19.5546 43.2353 20.1511 43.6249 20.8101 43.6249C21.4692 43.6249 22.0657 43.2353 22.3665 42.6078L26.3791 34.2439H28.1076C28.4859 34.2439 28.8172 33.9736 28.917 33.5834L33.6851 14.9484C33.7802 14.5775 34.0971 14.3188 34.4567 14.3188H35.1272V15.2162C35.1272 15.7118 35.5029 16.1136 35.9664 16.1136H40.3989C41.787 16.1136 42.9162 14.906 42.9162 13.4211C42.9162 11.9366 41.787 10.7286 40.3992 10.7286ZM17.9327 5.48393C18.7125 4.64972 19.7748 4.23489 20.8551 4.32263C20.9368 5.47867 20.5493 6.61471 19.7695 7.44892C18.9894 8.28349 17.9274 8.69797 16.8471 8.61023C16.8422 8.53863 16.8389 8.46739 16.8373 8.39615C16.8383 8.34807 16.8383 8.29963 16.8379 8.25155C16.8511 7.22221 17.2333 6.23182 17.9327 5.48393ZM11.1414 4.32263C12.2214 4.23524 13.284 4.64937 14.0638 5.48393C14.7633 6.23217 15.1454 7.22256 15.1586 8.25225C15.1582 8.29998 15.1582 8.34807 15.1592 8.39615C15.1576 8.46739 15.1543 8.53898 15.1494 8.61058C14.0691 8.69762 13.0071 8.28349 12.227 7.44927C11.4468 6.61471 11.0597 5.47867 11.1414 4.32263ZM4.4794 41.8167C2.88894 41.8167 1.59538 40.4329 1.59538 38.7315C1.59538 37.0304 2.88894 35.6463 4.4794 35.6463C6.06953 35.6463 7.36342 37.0304 7.36342 38.7315C7.36342 40.4329 6.06953 41.8167 4.4794 41.8167ZM20.8738 41.7883C20.8666 41.8038 20.8538 41.8297 20.8101 41.8297C20.7665 41.8297 20.754 41.8038 20.7468 41.7883L17.1276 34.2439H24.493L20.8738 41.7883ZM27.4676 32.4487H8.49229C7.90768 32.4487 7.36538 32.1104 7.07734 31.5661L1.72463 21.4439C1.4753 20.9719 1.6459 20.5581 1.73119 20.4023C1.81616 20.2461 2.06877 19.8832 2.57531 19.8832H12.5413C13.0048 19.8832 13.3805 19.4814 13.3805 18.9858C13.3805 18.4899 13.0048 18.0881 12.5413 18.0881H5.34188C5.70013 16.8566 6.77552 15.9599 8.0435 15.9599C8.531 15.9599 9.0126 16.0954 9.43548 16.3523C9.67923 16.5 9.9758 16.5077 10.2258 16.3737C10.4761 16.2393 10.6473 15.9802 10.6821 15.683C11.0099 12.8796 13.2519 10.7654 15.8974 10.7654C18.5268 10.7654 20.7668 12.8655 21.108 15.65C21.1481 15.9771 21.3524 16.254 21.6408 16.3719C21.9289 16.4895 22.254 16.4288 22.4875 16.2133C23.1076 15.6416 23.8999 15.3268 24.7177 15.3268C26.3144 15.3268 27.6585 16.5032 28.0335 18.0884H19.2535C18.7899 18.0884 18.4143 18.4903 18.4143 18.9858C18.4143 19.4817 18.7899 19.8836 19.2535 19.8836H30.6829L27.4676 32.4487ZM40.3992 14.3185H36.8056V12.5234H40.3992C40.8618 12.5234 41.2381 12.9263 41.2381 13.4211C41.2381 13.9159 40.8618 14.3185 40.3992 14.3185Z" />
<path d="M15.8971 18.0882C15.6763 18.0882 15.4597 18.1843 15.3039 18.351C15.1478 18.5181 15.0579 18.7497 15.0579 18.9856C15.0579 19.2217 15.1478 19.4534 15.3039 19.6204C15.4607 19.7882 15.6763 19.8833 15.8971 19.8833C16.1185 19.8833 16.334 19.7882 16.4902 19.6204C16.647 19.4534 16.7359 19.2217 16.7359 18.9856C16.7359 18.7497 16.647 18.5181 16.4902 18.351C16.334 18.1843 16.1185 18.0882 15.8971 18.0882Z" />
<path d="M4.47974 37.8337C4.25829 37.8337 4.04276 37.9298 3.88594 38.0969C3.72978 38.2636 3.63989 38.4952 3.63989 38.7314C3.63989 38.9673 3.72978 39.1989 3.88594 39.3659C4.04276 39.533 4.25829 39.6288 4.47974 39.6288C4.70053 39.6288 4.91606 39.533 5.07288 39.3659C5.22904 39.1989 5.31794 38.9673 5.31794 38.7314C5.31794 38.4952 5.22904 38.2636 5.07288 38.0969C4.91606 37.9298 4.70053 37.8337 4.47974 37.8337Z" />
</svg>
