<svg xmlns="http://www.w3.org/2000/svg" viewBox="0 0 512 512" fill="white">
  <path
    d="M414.5 188.5h-32.2L392 77v-.6c0-3-1.8-5.8-4.5-7l-.6-.1-.2-.1-.4-.1h-.3l-.4-.1-.4-.1H231a7.5 7.5 0 000 15h145.3l-14.9 171.3-3.8 43.3H97l4.4-45H151a7.5 7.5 0 100-15h-48.2l9.2-95h79a7.5 7.5 0 100-15h-77.5l4.3-44.6H201a7.5 7.5 0 000-15h-90a7.5 7.5 0 00-7.3 5.9l-.1.6v.2l-5.2 53H7.5a7.5 7.5 0 100 15H97l-9.2 95H61a7.5 7.5 0 100 15h25.3l-5 51.6-7.8 80V386.9l.1.6v.1l.2.5v.3c.4 1.2 1 2.2 1.9 3l.2.3c.6.4 1.1.8 1.8 1.1l.4.2h.1l.6.3.7.2H80.3l.7.1h33.4a57.2 57.2 0 00113.2 0h120.3a57.2 57.2 0 00113.2 0H495.4l.6-.1h.2l.4-.2h.3l.4-.2.3-.1a9 9 0 001.2-.7l.3-.3s.2 0 .2-.2c.2 0 .2-.1.3-.2l.3-.2.3-.4.1-.1.3-.5.1-.1.4-.6.3-.6v-.2l.2-.5.1-.3.1-.4v-.3l.1-.3c.4-2.6 6.2-49.7 8.9-80.2.7-8.9 1.2-16.2 1.2-20.8a97.6 97.6 0 00-97.5-97.5zm-33.5 15h30.6l-3.9 45H377l4-45zM171 428.1a42.2 42.2 0 11.1-84.3 42.2 42.2 0 010 84.3zm233.5 0a42.2 42.2 0 110-84.3 42.2 42.2 0 010 84.3zm83.4-49.6H461a57.2 57.2 0 00-113.2 0H227.6a57.2 57.2 0 00-113.2 0H89.3l6.3-65h269.7l.7-.1h.2l.5-.2.3-.1.3-.1.3-.2.4-.1.3-.2.3-.2.3-.2a7.6 7.6 0 002-2.3l.2-.3.2-.4.1-.3.2-.3v-.3l.2-.4v-.3l.1-.4v-.4l3.8-43.2h38.8c23 0 33.3 12 44.3 24.5 9 10.4 19.2 22 36.3 24.9-2.1 23-5.7 52.7-7.2 65.6zm8.5-80.7c-11.1-2.2-18-10-26.3-19.6-10.4-12-23-26.5-47.4-29.2l4-44.6A82.6 82.6 0 01497 286c0 2.8-.2 7-.6 11.8z"/>
  <path
    d="M171 358.5a27.5 27.5 0 100 55 27.5 27.5 0 000-55zm0 40a12.5 12.5 0 110-25 12.5 12.5 0 010 25zM404.5 358.5a27.5 27.5 0 100 55 27.5 27.5 0 000-55zm0 40a12.5 12.5 0 110-25 12.5 12.5 0 010 25zM71 188.5H34.3a7.5 7.5 0 100 15H71a7.5 7.5 0 100-15z"/>
</svg>
