<svg viewBox="0 0 33 33" fill="none" xmlns="http://www.w3.org/2000/svg">
<path d="M13.8266 15.9637L10.2465 21.334H9.7971V13.944H7.86353V22.3008C7.86353 22.8347 8.29639 23.2675 8.83031 23.2675H10.7639C11.0871 23.2675 11.389 23.106 11.5683 22.8371L15.4355 17.0363L13.8266 15.9637Z" fill="#60880A"/>
<path d="M28.9814 7.351L22.1294 18.1184C21.5816 18.9802 20.6528 19.4642 19.6886 19.4642C19.6867 19.4642 18.785 19.1 17.467 18.5387C13.9343 17.0356 7.40979 14.1185 7.18098 13.0054L5.94994 7.02681L17.467 7.18923L28.9814 7.351Z" fill="#9BCB35"/>
<path d="M28.9814 7.351L22.1294 18.1184C21.5816 18.9802 20.6528 19.4642 19.6886 19.4642C19.6867 19.4642 18.785 19.1 17.4669 18.5387V7.18922L28.9814 7.351Z" fill="#92B940"/>
<path d="M25.5003 21.1561C25.2882 21.6537 24.7135 21.8733 24.2319 21.6665L17.4669 18.7829L0.588127 11.5887C0.0969992 11.3793 -0.131807 10.8115 0.0776634 10.3203C0.287134 9.8292 0.854961 9.60039 1.34609 9.80986L17.4669 16.6811L24.9898 19.8877C25.481 20.0971 25.7091 20.665 25.5003 21.1561Z" fill="#82AD26"/>
<path d="M25.5003 21.1561C25.2882 21.6536 24.7135 21.8733 24.2319 21.6665L17.4669 18.7829V16.6811L24.9898 19.8876C25.481 20.0971 25.7091 20.6649 25.5003 21.1561Z" fill="#60880A"/>
<path d="M31.0665 6.83222C31.0665 7.36589 30.6333 7.79901 30.0997 7.79901H4.9632C4.42953 7.79901 3.99641 7.36589 3.99641 6.83222C3.99641 6.29855 4.42953 5.86543 4.9632 5.86543H30.0997C30.6333 5.86543 31.0665 6.29855 31.0665 6.83222Z" fill="#82AD26"/>
<path d="M31.0664 6.83215C31.0664 7.36582 30.6333 7.79894 30.0996 7.79894H17.4669V5.86537H30.0996C30.6333 5.86537 31.0664 6.29849 31.0664 6.83215Z" fill="#60880A"/>
<path d="M28.1661 27.1347C25.5006 27.1347 23.3321 24.9662 23.3321 22.3008C23.3321 19.6353 25.5006 17.4668 28.1661 17.4668C30.8315 17.4668 33 19.6353 33 22.3008C33 24.9662 30.8315 27.1347 28.1661 27.1347Z" fill="#82AD26"/>
<path d="M28.1661 25.2012C29.7679 25.2012 31.0665 23.9026 31.0665 22.3008C31.0665 20.6989 29.7679 19.4004 28.1661 19.4004C26.5643 19.4004 25.2657 20.6989 25.2657 22.3008C25.2657 23.9026 26.5643 25.2012 28.1661 25.2012Z" fill="#60880A"/>
</svg>
