<svg width="35" height="15" viewBox="0 0 35 15" fill="none" xmlns="http://www.w3.org/2000/svg">
  <g clip-path="url(#clip0)">
    <path d="M-273 1.74881H2.14102C4.63718 1.74881 6.52362 4.00992 6.07626 6.46567L5.74088 8.30692C5.15619 11.5165 8.45297 14.0385 11.3978 12.6343L33.4091 2.13828C33.9468 1.88187 34.535 1.74881 35.1307 1.74881H61C63.2092 1.74881 65 -0.0420532 65 -2.25119V-275C65 -277.209 63.2091 -279 61 -279H-273C-275.209 -279 -277 -277.209 -277 -275V-2.25119C-277 -0.0420532 -275.209 1.74881 -273 1.74881Z" stroke="#F3F3F3" stroke-width="3"/>
  </g>
  <defs>
    <clipPath id="clip0">
      <rect width="35" height="15" fill="white"/>
    </clipPath>
  </defs>
</svg>
