<svg viewBox="0 0 16 16" xmlns="http://www.w3.org/2000/svg">
<path d="M13.2936 11.1439L11.5559 9.40625H8C5.67371 9.40625 3.78125 7.51379 3.78125 5.1875C3.78125 2.86121 5.67371 0.96875 8 0.96875H11.75C14.0763 0.96875 16 2.86121 16 5.1875C16 5.71033 15.9075 6.21521 15.7249 6.68762L14.0631 10.9791C13.9432 11.2947 13.535 11.3855 13.2936 11.1439Z"/>
<path d="M11.1677 10.3439H8C5.15686 10.3439 2.84375 8.03076 2.84375 5.18762C2.84375 5.11572 2.85168 5.0459 2.85461 4.97461C1.2157 5.55396 0 7.10278 0 8.93762C0 9.46045 0.0925293 9.96533 0.27417 10.4354L1.93689 14.7292C2.05664 15.0448 2.46484 15.1356 2.70642 14.894L4.44409 13.1564H8C9.61731 13.1564 11.0083 12.2314 11.7161 10.8922L11.1677 10.3439Z"/>
</svg>
