<svg width="13" height="17" viewBox="0 0 13 17" fill="none" xmlns="http://www.w3.org/2000/svg">
<path d="M12.3313 9.83718C12.1522 7.50465 11.0662 6.04295 10.1081 4.75308C9.22097 3.55894 8.45477 2.52774 8.45477 1.00657C8.45477 0.88438 8.38634 0.7727 8.27784 0.716708C8.169 0.660379 8.03823 0.669605 7.93929 0.741512C6.50041 1.77112 5.29985 3.50646 4.88048 5.16222C4.58933 6.31497 4.55081 7.61089 4.54541 8.46679C3.21662 8.18297 2.91561 6.19535 2.91243 6.17369C2.89746 6.0706 2.83448 5.98088 2.74284 5.93188C2.65025 5.88353 2.54141 5.88002 2.44754 5.92648C2.37786 5.9602 0.73722 6.79383 0.641761 10.1222C0.635071 10.233 0.634766 10.344 0.634766 10.4551C0.634766 13.6887 3.26592 16.3197 6.49977 16.3197C6.50423 16.32 6.50899 16.3206 6.51281 16.3197C6.51409 16.3197 6.51534 16.3197 6.51693 16.3197C9.74284 16.3104 12.3648 13.683 12.3648 10.4551C12.3648 10.2925 12.3313 9.83718 12.3313 9.83718ZM6.49977 15.6681C5.42171 15.6681 4.54477 14.7339 4.54477 13.5856C4.54477 13.5465 4.54446 13.507 4.5473 13.4587C4.56034 12.9744 4.65232 12.6438 4.75319 12.4239C4.94221 12.8299 5.28012 13.2032 5.82902 13.2032C6.00912 13.2032 6.15486 13.0574 6.15486 12.8774C6.15486 12.4135 6.16442 11.8783 6.27992 11.3953C6.38271 10.967 6.62834 10.5114 6.93955 10.1461C7.07796 10.6202 7.34781 11.0039 7.61127 11.3784C7.98834 11.9142 8.37812 12.4682 8.44655 13.4128C8.45067 13.4688 8.45483 13.5252 8.45483 13.5856C8.45477 14.7339 7.57783 15.6681 6.49977 15.6681Z" fill="white"/>
</svg>
