<svg width="18" height="18" viewBox="0 0 18 18" fill="none" xmlns="http://www.w3.org/2000/svg">
<path d="M17.23 16.2242L13.0101 12.0043C14.059 10.743 14.691 9.12325 14.691 7.35841C14.691 3.34539 11.4262 0.0805664 7.4134 0.0805664C3.40047 0.0805664 0.135742 3.34539 0.135742 7.35841C0.135742 11.3712 3.40047 14.6357 7.4134 14.6357C9.17816 14.6357 10.798 14.0039 12.0593 12.9549L16.2793 17.1748C16.4105 17.3062 16.5826 17.3718 16.7547 17.3718C16.9267 17.3718 17.0988 17.3062 17.2301 17.1748C17.4926 16.9123 17.4926 16.4867 17.23 16.2242ZM1.48029 7.35841C1.48029 4.08677 4.14185 1.42511 7.4134 1.42511C10.6849 1.42511 13.3463 4.08677 13.3463 7.35841C13.3463 10.6298 10.6849 13.2912 7.4134 13.2912C4.14185 13.2912 1.48029 10.6298 1.48029 7.35841Z" fill="white"/>
</svg>
