<svg viewBox="0 0 30 30" xmlns="http://www.w3.org/2000/svg">
<path d="M15.5859 5.03906V0.585938C15.5859 0.234375 15.3515 0 14.9999 0C14.6484 0 14.414 0.234375 14.414 0.585938V5.03906C9.7265 5.33203 5.9765 9.25781 5.9765 14.0039V20.9766C5.9765 25.957 10.0195 30 14.9999 30C19.9804 30 24.0234 25.957 24.0234 20.9766V14.0039C24.0234 9.25781 20.2734 5.33203 15.5859 5.03906ZM14.9413 10.8398C15.4101 10.8398 16.1718 12.0117 16.1718 13.8867C16.1718 15.7617 15.4687 16.9336 14.9413 16.9336C14.414 16.9336 13.7109 15.7617 13.7109 13.8867C13.7695 12.0117 14.4726 10.8398 14.9413 10.8398ZM22.8515 20.9766C22.8515 25.3125 19.3359 28.8281 14.9999 28.8281C10.664 28.8281 7.14838 25.3125 7.14838 20.9766V14.0039C7.14838 9.90234 10.371 6.50391 14.414 6.21094V9.78516C13.3593 10.1953 12.5976 11.8359 12.5976 13.8867C12.5976 16.2891 13.5937 18.1055 14.9999 18.1055C16.4062 18.1055 17.4023 16.2891 17.4023 13.8867C17.4023 11.8359 16.6406 10.2539 15.5859 9.78516V6.21094C19.6288 6.50391 22.8515 9.90234 22.8515 14.0039V20.9766Z" />
</svg>
