<svg viewBox="0 0 23 23" fill="none" xmlns="http://www.w3.org/2000/svg">
<path d="M12.2465 10.8612L13.5854 22.1911L9.5685 13.4877L0.916626 9.57373L12.2465 10.8612Z" fill="#ECA704"/>
<path d="M22.2372 0.870117L12.2464 10.861L13.5853 22.1908L22.2372 0.870117Z" fill="#FFCC00"/>
<path d="M22.2376 0.870118L12.2468 10.861L0.91693 9.57353L22.2376 0.870118Z" fill="#FFE788"/>
</svg>
